<define-tag pagetitle>DLA-3198-1 php-phpseclib</define-tag>
<define-tag report_date>2022-11-17</define-tag>
<define-tag secrefs>CVE-2021-30130</define-tag>
<define-tag packages>php-phpseclib</define-tag>
<define-tag isvulnerable>yes</define-tag>
<define-tag fixed>yes</define-tag>
<define-tag fixed-section>no</define-tag>

#use wml::debian::security

