<define-tag pagetitle>DLA-3025-1 irssi</define-tag>
<define-tag report_date>2022-05-26</define-tag>
<define-tag secrefs>CVE-2019-13045</define-tag>
<define-tag packages>irssi</define-tag>
<define-tag isvulnerable>yes</define-tag>
<define-tag fixed>yes</define-tag>
<define-tag fixed-section>no</define-tag>

#use wml::debian::security
