<define-tag pagetitle>DLA-2935-1 expat</define-tag>
<define-tag report_date>2022-03-07</define-tag>
<define-tag secrefs>CVE-2022-23852 CVE-2022-25235 CVE-2022-25236 CVE-2022-25313 CVE-2022-25315 Bug#1005894 Bug#1005895</define-tag>
<define-tag packages>expat</define-tag>
<define-tag isvulnerable>yes</define-tag>
<define-tag fixed>yes</define-tag>
<define-tag fixed-section>no</define-tag>

#use wml::debian::security

