<define-tag pagetitle>DLA-3163-1 wordpress</define-tag>
<define-tag report_date>2022-10-26</define-tag>
<define-tag secrefs>not yet available</define-tag>
<define-tag packages>wordpress</define-tag>
<define-tag isvulnerable>yes</define-tag>
<define-tag fixed>yes</define-tag>
<define-tag fixed-section>no</define-tag>

#use wml::debian::security

