<define-tag pagetitle>DLA-2959-1 paramiko</define-tag>
<define-tag report_date>2022-03-21</define-tag>
<define-tag secrefs>CVE-2022-24302</define-tag>
<define-tag packages>paramiko</define-tag>
<define-tag isvulnerable>yes</define-tag>
<define-tag fixed>yes</define-tag>
<define-tag fixed-section>no</define-tag>

#use wml::debian::security
