<define-tag pagetitle>DLA-3236-1 openexr</define-tag>
<define-tag report_date>2022-12-12</define-tag>
<define-tag secrefs>CVE-2020-16587 CVE-2020-16588 CVE-2020-16589 CVE-2021-3474 CVE-2021-3475 CVE-2021-3476 CVE-2021-3477 CVE-2021-3478 CVE-2021-3479 CVE-2021-3598 CVE-2021-3605 CVE-2021-3933 CVE-2021-3941 CVE-2021-20296 CVE-2021-20298 CVE-2021-20299 CVE-2021-20300 CVE-2021-20302 CVE-2021-20303 CVE-2021-23215 CVE-2021-26260 CVE-2021-45942 Bug#986796 Bug#992703 Bug#990450 Bug#990899 Bug#1014828</define-tag>
<define-tag packages>openexr</define-tag>
<define-tag isvulnerable>yes</define-tag>
<define-tag fixed>yes</define-tag>
<define-tag fixed-section>no</define-tag>

#use wml::debian::security

