<define-tag pagetitle>DSA-4695-1 firefox-esr</define-tag>
<define-tag report_date>2020-6-03</define-tag>
<define-tag secrefs>CVE-2020-12399 CVE-2020-12405 CVE-2020-12406 CVE-2020-12410</define-tag>
<define-tag packages>firefox-esr</define-tag>
<define-tag isvulnerable>yes</define-tag>
<define-tag fixed>yes</define-tag>
<define-tag fixed-section>no</define-tag>

#use wml::debian::security



</dl>
