<define-tag pagetitle>DLA-2799-1 opencv</define-tag>
<define-tag report_date>2021-10-30</define-tag>
<define-tag secrefs>CVE-2016-1516 CVE-2017-12597 CVE-2017-12598 CVE-2017-12599 CVE-2017-12601 CVE-2017-12603 CVE-2017-12604 CVE-2017-12605 CVE-2017-12606 CVE-2017-12862 CVE-2017-12863 CVE-2017-12864 CVE-2017-17760 CVE-2017-1000450 CVE-2018-5268 CVE-2018-5269 CVE-2019-14493 CVE-2019-15939 Bug#886282 Bug#885843 Bug#875342 Bug#872044 Bug#872043</define-tag>
<define-tag packages>opencv</define-tag>
<define-tag isvulnerable>yes</define-tag>
<define-tag fixed>yes</define-tag>
<define-tag fixed-section>no</define-tag>

#use wml::debian::security

