<define-tag pagetitle>DLA-2589-1 mupdf</define-tag>
<define-tag report_date>2021-03-12</define-tag>
<define-tag secrefs>CVE-2020-26519 CVE-2021-3407 Bug#971595 Bug#983684</define-tag>
<define-tag packages>mupdf</define-tag>
<define-tag isvulnerable>yes</define-tag>
<define-tag fixed>yes</define-tag>
<define-tag fixed-section>no</define-tag>

#use wml::debian::security

