<define-tag pagetitle>DSA-5550-1 cacti</define-tag>
<define-tag report_date>2023-11-08</define-tag>
<define-tag secrefs>CVE-2023-39357 CVE-2023-39359 CVE-2023-39361 CVE-2023-39362 CVE-2023-39364 CVE-2023-39365 CVE-2023-39513 CVE-2023-39515 CVE-2023-39516 CVE-2023-39514 CVE-2023-39512 CVE-2023-39510 CVE-2023-39366</define-tag>
<define-tag packages>cacti</define-tag>
<define-tag isvulnerable>yes</define-tag>
<define-tag fixed>yes</define-tag>
<define-tag fixed-section>no</define-tag>

#use wml::debian::security



</dl>
