<define-tag pagetitle>DSA-5569-1 chromium</define-tag>
<define-tag report_date>2023-11-30</define-tag>
<define-tag secrefs>CVE-2023-6345 CVE-2023-6346 CVE-2023-6347 CVE-2023-6348 CVE-2023-6350 CVE-2023-6351</define-tag>
<define-tag packages>chromium</define-tag>
<define-tag isvulnerable>yes</define-tag>
<define-tag fixed>yes</define-tag>
<define-tag fixed-section>no</define-tag>

#use wml::debian::security



</dl>
