<define-tag pagetitle>DSA-5571-1 rabbitmq-server</define-tag>
<define-tag report_date>2023-12-01</define-tag>
<define-tag secrefs>CVE-2023-46118</define-tag>
<define-tag packages>rabbitmq-server</define-tag>
<define-tag isvulnerable>yes</define-tag>
<define-tag fixed>yes</define-tag>
<define-tag fixed-section>no</define-tag>

#use wml::debian::security



</dl>
