<define-tag pagetitle>DSA-5439-1 bind9</define-tag>
<define-tag report_date>2023-6-25</define-tag>
<define-tag secrefs>CVE-2023-2828 CVE-2023-2911</define-tag>
<define-tag packages>bind9</define-tag>
<define-tag isvulnerable>yes</define-tag>
<define-tag fixed>yes</define-tag>
<define-tag fixed-section>no</define-tag>

#use wml::debian::security



</dl>
