<define-tag pagetitle>DSA-5401-1 postgresql-13</define-tag>
<define-tag report_date>2023-5-11</define-tag>
<define-tag secrefs>CVE-2023-2454 CVE-2023-2455</define-tag>
<define-tag packages>postgresql-13</define-tag>
<define-tag isvulnerable>yes</define-tag>
<define-tag fixed>yes</define-tag>
<define-tag fixed-section>no</define-tag>

#use wml::debian::security



</dl>
