<define-tag pagetitle>DLA-1018-1 sqlite3</define-tag>
<define-tag report_date>2017-7-9</define-tag>
<define-tag secrefs>CVE-2017-10989 Bug##867618</define-tag>
<define-tag packages>sqlite3</define-tag>
<define-tag isvulnerable>yes</define-tag>
<define-tag fixed>yes</define-tag>
<define-tag fixed-section>no</define-tag>

#use wml::debian::security

