<define-tag pagetitle>DLA-1044-1 ipsec-tools</define-tag>
<define-tag report_date>2017-7-30</define-tag>
<define-tag secrefs>CVE-2016-10396 Bug#867986</define-tag>
<define-tag packages>ipsec-tools</define-tag>
<define-tag isvulnerable>yes</define-tag>
<define-tag fixed>yes</define-tag>
<define-tag fixed-section>no</define-tag>

#use wml::debian::security

