<define-tag pagetitle>DLA-943-1 deluge</define-tag>
<define-tag report_date>2017-5-16</define-tag>
<define-tag secrefs>Bug##862611</define-tag>
<define-tag packages>deluge</define-tag>
<define-tag isvulnerable>yes</define-tag>
<define-tag fixed>yes</define-tag>
<define-tag fixed-section>no</define-tag>

#use wml::debian::security

