<define-tag pagetitle>DLA-870-1 libplist</define-tag>
<define-tag report_date>2017-3-24</define-tag>
<define-tag secrefs>CVE-2017-6435 CVE-2017-6436 CVE-2017-6439</define-tag>
<define-tag packages>libplist</define-tag>
<define-tag isvulnerable>yes</define-tag>
<define-tag fixed>yes</define-tag>
<define-tag fixed-section>no</define-tag>

#use wml::debian::security

