<define-tag pagetitle>DLA-1041-1 nasm</define-tag>
<define-tag report_date>2017-7-28</define-tag>
<define-tag secrefs>CVE-2017-10686 CVE-2017-11111</define-tag>
<define-tag packages>nasm</define-tag>
<define-tag isvulnerable>yes</define-tag>
<define-tag fixed>yes</define-tag>
<define-tag fixed-section>no</define-tag>

#use wml::debian::security

