<define-tag pagetitle>DLA-3675-1 zbar</define-tag>
<define-tag report_date>2023-12-04</define-tag>
<define-tag secrefs>CVE-2023-40889 CVE-2023-40890 Bug#1051724</define-tag>
<define-tag packages>zbar</define-tag>
<define-tag isvulnerable>yes</define-tag>
<define-tag fixed>yes</define-tag>
<define-tag fixed-section>no</define-tag>

#use wml::debian::security

