<define-tag pagetitle>DLA-3682-1 ncurses</define-tag>
<define-tag report_date>2023-12-03</define-tag>
<define-tag secrefs>CVE-2021-39537 CVE-2023-29491 Bug#1034372</define-tag>
<define-tag packages>ncurses</define-tag>
<define-tag isvulnerable>yes</define-tag>
<define-tag fixed>yes</define-tag>
<define-tag fixed-section>no</define-tag>

#use wml::debian::security

