<define-tag pagetitle>DLA-3350-1 node-css-what</define-tag>
<define-tag report_date>2023-03-03</define-tag>
<define-tag secrefs>CVE-2022-21222 CVE-2021-33587 Bug##1032188</define-tag>
<define-tag packages>node-css-what</define-tag>
<define-tag isvulnerable>yes</define-tag>
<define-tag fixed>yes</define-tag>
<define-tag fixed-section>no</define-tag>

#use wml::debian::security

