<define-tag pagetitle>DLA-3591-1 firefox-esr</define-tag>
<define-tag report_date>2023-09-30</define-tag>
<define-tag secrefs>CVE-2023-5217</define-tag>
<define-tag packages>firefox-esr</define-tag>
<define-tag isvulnerable>yes</define-tag>
<define-tag fixed>yes</define-tag>
<define-tag fixed-section>no</define-tag>

#use wml::debian::security

