<define-tag pagetitle>DLA-3636-1 openjdk-11</define-tag>
<define-tag report_date>2023-10-29</define-tag>
<define-tag secrefs>CVE-2023-22081</define-tag>
<define-tag packages>openjdk-11</define-tag>
<define-tag isvulnerable>yes</define-tag>
<define-tag fixed>yes</define-tag>
<define-tag fixed-section>no</define-tag>

#use wml::debian::security

