<define-tag pagetitle>DLA-3549-1 ring</define-tag>
<define-tag report_date>2023-8-29</define-tag>
<define-tag secrefs>CVE-2021-37706 CVE-2021-43299 CVE-2021-43300 CVE-2021-43301 CVE-2021-43302 CVE-2021-43303 CVE-2021-43804 CVE-2021-43845 CVE-2022-21722 CVE-2022-21723 CVE-2022-23537 CVE-2022-23547 CVE-2022-23608 CVE-2022-24754 CVE-2022-24763 CVE-2022-24764 CVE-2022-24793 CVE-2022-31031 CVE-2022-39244 CVE-2023-27585</define-tag>
<define-tag packages>ring</define-tag>
<define-tag isvulnerable>yes</define-tag>
<define-tag fixed>yes</define-tag>
<define-tag fixed-section>no</define-tag>

#use wml::debian::security

