<define-tag pagetitle>DLA-3531-1 open-vm-tools</define-tag>
<define-tag report_date>2023-08-16</define-tag>
<define-tag secrefs>CVE-2023-20867 Bug#1037546</define-tag>
<define-tag packages>open-vm-tools</define-tag>
<define-tag isvulnerable>yes</define-tag>
<define-tag fixed>yes</define-tag>
<define-tag fixed-section>no</define-tag>

#use wml::debian::security

