<define-tag pagetitle>DLA-3644-1 phppgadmin</define-tag>
<define-tag report_date>2023-11-02</define-tag>
<define-tag secrefs>CVE-2023-40619</define-tag>
<define-tag packages>phppgadmin</define-tag>
<define-tag isvulnerable>yes</define-tag>
<define-tag fixed>yes</define-tag>
<define-tag fixed-section>no</define-tag>

#use wml::debian::security
