<define-tag pagetitle>DLA-3368-1 libreoffice</define-tag>
<define-tag report_date>2023-03-26</define-tag>
<define-tag secrefs>CVE-2021-25636 CVE-2022-3140 CVE-2022-26305 CVE-2022-26306 CVE-2022-26307</define-tag>
<define-tag packages>libreoffice</define-tag>
<define-tag isvulnerable>yes</define-tag>
<define-tag fixed>yes</define-tag>
<define-tag fixed-section>no</define-tag>

#use wml::debian::security

