<define-tag pagetitle>DLA-1466-1 linux-4.9</define-tag>
<define-tag report_date>2018-8-15</define-tag>
<define-tag secrefs>CVE-2018-5390 CVE-2018-5391 CVE-2018-13405 Bug#893393 Bug#903122 Bug#903767 Bug#903776 Bug#903838 Bug#903914</define-tag>
<define-tag packages>linux-4.9</define-tag>
<define-tag isvulnerable>yes</define-tag>
<define-tag fixed>yes</define-tag>
<define-tag fixed-section>no</define-tag>

#use wml::debian::security

