<define-tag pagetitle>DLA-1499-1 discount</define-tag>
<define-tag report_date>2018-9-8</define-tag>
<define-tag secrefs>CVE-2018-11468 CVE-2018-11503 CVE-2018-11504 CVE-2018-12495 Bug#901912</define-tag>
<define-tag packages>discount</define-tag>
<define-tag isvulnerable>yes</define-tag>
<define-tag fixed>yes</define-tag>
<define-tag fixed-section>no</define-tag>

#use wml::debian::security

