<define-tag pagetitle>DSA-5039-1 wordpress</define-tag>
<define-tag report_date>2022-1-11</define-tag>
<define-tag secrefs>CVE-2022-21661 CVE-2022-21662 CVE-2022-21663 CVE-2022-21664 Bug#1003243</define-tag>
<define-tag packages>wordpress</define-tag>
<define-tag isvulnerable>yes</define-tag>
<define-tag fixed>yes</define-tag>
<define-tag fixed-section>no</define-tag>

#use wml::debian::security



</dl>
