<define-tag pagetitle>DSA-5278-1 xorg-server</define-tag>
<define-tag report_date>2022-11-13</define-tag>
<define-tag secrefs>CVE-2022-3550 CVE-2022-3551</define-tag>
<define-tag packages>xorg-server</define-tag>
<define-tag isvulnerable>yes</define-tag>
<define-tag fixed>yes</define-tag>
<define-tag fixed-section>no</define-tag>

#use wml::debian::security



</dl>
