<define-tag pagetitle>DLA-620-1 libphp-adodb</define-tag>
<define-tag report_date>2016-9-13</define-tag>
<define-tag secrefs>Bug##837211 Bug##837418</define-tag>
<define-tag packages>libphp-adodb</define-tag>
<define-tag isvulnerable>yes</define-tag>
<define-tag fixed>yes</define-tag>
<define-tag fixed-section>no</define-tag>

#use wml::debian::security

