<define-tag pagetitle>DLA-712-1 gst-plugins-bad0.10</define-tag>
<define-tag report_date>2016-11-19</define-tag>
<define-tag secrefs>CVE-2016-9445 CVE-2016-9446 CVE-2016-9447</define-tag>
<define-tag packages>gst-plugins-bad0.10</define-tag>
<define-tag isvulnerable>yes</define-tag>
<define-tag fixed>yes</define-tag>
<define-tag fixed-section>no</define-tag>

#use wml::debian::security

